mips_sim.vcd
$date
	Sun Feb  9 03:54:25 2025
$end
$version
	Icarus Verilog
$end
$timescale
	1s
$end
$scope module TestBenchMIPS $end
$var reg 1 ! clk $end
$var reg 1 " reset $end
$scope module mips $end
$var wire 1 # branch_result $end
$var wire 1 ! clk $end
$var wire 1 " reset $end
$var wire 32 $ shifted_extended [31:0] $end
$var wire 32 % registerReaded2 [31:0] $end
$var wire 32 & registerReaded1 [31:0] $end
$var wire 32 ' readData [31:0] $end
$var wire 32 ( mux_write_data [31:0] $end
$var wire 5 ) mux_registor_destiny [4:0] $end
$var wire 32 * mux_alu [31:0] $end
$var wire 32 + instrucao [31:0] $end
$var wire 32 , extended_address [31:0] $end
$var wire 1 - Zero $end
$var wire 1 . RegWrite $end
$var wire 1 / RegDst $end
$var wire 1 0 MemtoREG $end
$var wire 1 1 MemWrite $end
$var wire 1 2 MemRead $end
$var wire 1 3 Branch $end
$var wire 1 4 ALUSrc $end
$var wire 32 5 ALUResult [31:0] $end
$var wire 4 6 ALUOperation [3:0] $end
$var wire 2 7 ALUOp [1:0] $end
$scope module alu $end
$var wire 1 - Zero $end
$var wire 32 8 B [31:0] $end
$var wire 4 9 ALUOperation [3:0] $end
$var wire 32 : A [31:0] $end
$var reg 32 ; ALUResult [31:0] $end
$upscope $end
$scope module alucontrol $end
$var wire 6 < funct [5:0] $end
$var wire 2 = ALUOp [1:0] $end
$var reg 4 > ALUOperation [3:0] $end
$upscope $end
$scope module controlUnit $end
$var wire 6 ? Op [5:0] $end
$var reg 2 @ ALUOp [1:0] $end
$var reg 1 4 ALUSrc $end
$var reg 1 3 Branch $end
$var reg 1 2 MemRead $end
$var reg 1 1 MemWrite $end
$var reg 1 0 MemtoREG $end
$var reg 1 / RegDst $end
$var reg 1 . RegWrite $end
$upscope $end
$scope module dmemory $end
$var wire 1 2 MemRead $end
$var wire 1 1 MemWrite $end
$var wire 32 A address [31:0] $end
$var wire 1 ! clk $end
$var wire 32 B writeData [31:0] $end
$var wire 32 C readData [31:0] $end
$var integer 32 D i [31:0] $end
$upscope $end
$scope module extender $end
$var wire 16 E in [15:0] $end
$var wire 32 F out [31:0] $end
$upscope $end
$scope module fetch $end
$var wire 1 # branch $end
$var wire 1 ! clk $end
$var wire 1 " reset $end
$var wire 32 G pc_incrementado4 [31:0] $end
$var wire 32 H pc_incrementado [31:0] $end
$var wire 32 I instrucao [31:0] $end
$var wire 32 J extended_address [31:0] $end
$var wire 32 K added_instruction [31:0] $end
$var reg 32 L pc [31:0] $end
$scope module ad $end
$var wire 32 M sum [31:0] $end
$var wire 32 N b [31:0] $end
$var wire 32 O a [31:0] $end
$upscope $end
$scope module m4 $end
$var wire 32 P b [31:0] $end
$var wire 1 # selector $end
$var wire 32 Q a [31:0] $end
$var reg 32 R out [31:0] $end
$upscope $end
$scope module memoria $end
$var wire 32 S addr [31:0] $end
$var wire 32 T instrucao [31:0] $end
$var integer 32 U i [31:0] $end
$upscope $end
$scope module somador $end
$var wire 32 V in [31:0] $end
$var wire 32 W out [31:0] $end
$upscope $end
$upscope $end
$scope module m1 $end
$var wire 5 X a [4:0] $end
$var wire 5 Y b [4:0] $end
$var wire 1 / selector $end
$var reg 5 Z out [4:0] $end
$upscope $end
$scope module m2 $end
$var wire 32 [ a [31:0] $end
$var wire 32 \ b [31:0] $end
$var wire 1 0 selector $end
$var reg 32 ] out [31:0] $end
$upscope $end
$scope module m3 $end
$var wire 32 ^ b [31:0] $end
$var wire 1 4 selector $end
$var wire 32 _ a [31:0] $end
$var reg 32 ` out [31:0] $end
$upscope $end
$scope module registradores $end
$var wire 32 a ReadData1 [31:0] $end
$var wire 32 b ReadData2 [31:0] $end
$var wire 5 c ReadRegister1 [4:0] $end
$var wire 5 d ReadRegister2 [4:0] $end
$var wire 1 . RegWrite $end
$var wire 32 e WriteData [31:0] $end
$var wire 5 f WriteRegister [4:0] $end
$var wire 1 ! clk $end
$var integer 32 g i [31:0] $end
$upscope $end
$scope module shifter $end
$var wire 32 h in [31:0] $end
$var wire 32 i out [31:0] $end
$upscope $end
$upscope $end
$upscope $end
$enddefinitions $end
$comment Show the parameter values. $end
$dumpall
$end
#0
$dumpvars
b10100 i
b101 h
b100000 g
b1000 f
b0 e
b1000 d
b0 c
b101 b
b0 a
b101 `
b101 _
b101 ^
b0 ]
b0 \
b0 [
b1000 Z
b0 Y
b1000 X
b100 W
b0 V
b100000000 U
b100000000010000000000000000101 T
b0 S
b100 R
b100 Q
b11000 P
b100 O
b10100 N
b11000 M
b0 L
b11000 K
b10100 J
b100000000010000000000000000101 I
b100 H
b100 G
b101 F
b101 E
b100000000 D
b0 C
b101 B
b0 A
b11 @
b1000 ?
b1111 >
b11 =
b101 <
b0 ;
b0 :
b1111 9
b101 8
b11 7
b1111 6
b0 5
04
03
02
01
00
0/
0.
1-
b101 ,
b100000000010000000000000000101 +
b101 *
b1000 )
b0 (
b0 '
b0 &
b101 %
b10100 $
0#
1"
0!
$end
#5
1!
#10
0!
#15
1!
#20
0!
0"
#25
b1100 $
b1100 J
b1100 N
b1100 i
b11 *
b11 8
b11 `
b1001 )
b1001 Z
b1001 f
b11 <
b11 %
b11 B
b11 _
b11 b
b1001 d
b11 ,
b11 F
b11 ^
b11 h
b11 E
b1001 X
b100000000010010000000000000011 +
b100000000010010000000000000011 I
b100000000010010000000000000011 T
b1000 H
b1000 R
b10100 K
b10100 M
b10100 P
b1000 G
b1000 O
b1000 Q
b1000 W
b100 L
b100 S
b100 V
1!
#30
0!
#35
0-
b1000 (
b1000 ]
b1000 e
b1000 5
b1000 ;
b1000 A
b1000 [
b10 6
b10 9
b10 >
b10100000010000000 $
b10100000010000000 J
b10100000010000000 N
b10100000010000000 i
b1010 )
b1010 Z
b1010 f
b10 7
b10 =
b10 @
1.
1/
b100000 <
b101 &
b101 :
b101 a
b1000 c
b101000000100000 ,
b101000000100000 F
b101000000100000 ^
b101000000100000 h
b101000000100000 E
b1010 Y
b0 ?
b1000010010101000000100000 +
b1000010010101000000100000 I
b1000010010101000000100000 T
b1100 H
b1100 R
b10100000010001100 K
b10100000010001100 M
b10100000010001100 P
b1100 G
b1100 O
b1100 Q
b1100 W
b1000 L
b1000 S
b1000 V
1!
#40
0!
#45
1-
b0 5
b0 ;
b0 A
b0 [
b0 $
b0 J
b0 N
b0 i
b0 *
b0 8
b0 `
b0 7
b0 =
b0 @
11
0.
x0
14
x/
b0 <
b1000 %
b1000 B
b1000 _
b1000 b
b1010 d
b0 &
b0 :
b0 a
b0 c
b0 ,
b0 F
b0 ^
b0 h
b0 E
b0 Y
b1010 X
b101011 ?
b10101100000010100000000000000000 +
b10101100000010100000000000000000 I
b10101100000010100000000000000000 T
b10000 H
b10000 R
b10000 K
b10000 M
b10000 P
b10000 G
b10000 O
b10000 Q
b10000 W
b1100 L
b1100 S
b1100 V
1!
#50
0!
#55
b1000 '
b1000 C
b1000 \
b1000 (
b1000 ]
b1000 e
b1011 )
b1011 Z
b1011 f
01
12
1.
10
0/
b0 %
b0 B
b0 _
b0 b
b1011 d
b1011 X
b100011 ?
b10001100000010110000000000000000 +
b10001100000010110000000000000000 I
b10001100000010110000000000000000 T
b10100 H
b10100 R
b10100 K
b10100 M
b10100 P
b10100 G
b10100 O
b10100 Q
b10100 W
b10000 L
b10000 S
b10000 V
1!
#60
0!
#65
0-
b0 '
b0 C
b0 \
b11111111111111111111111111111011 (
b11111111111111111111111111111011 ]
b11111111111111111111111111111011 e
b110 6
b110 9
b110 >
b11111111111111111111111111111011 5
b11111111111111111111111111111011 ;
b11111111111111111111111111111011 A
b11111111111111111111111111111011 [
b11000000010001000 $
b11000000010001000 J
b11000000010001000 N
b11000000010001000 i
b1000 *
b1000 8
b1000 `
b1100 )
b1100 Z
b1100 f
b10 7
b10 =
b10 @
02
00
04
1/
b100010 <
b1010 d
b11 &
b11 :
b11 a
b1001 c
b110000000100010 ,
b110000000100010 F
b110000000100010 ^
b110000000100010 h
b110000000100010 E
b1100 Y
b1010 X
b0 ?
b1001010100110000000100010 +
b1001010100110000000100010 I
b1001010100110000000100010 T
b11000 H
b11000 R
b11000000010100000 K
b11000000010100000 M
b11000000010100000 P
b11000 G
b11000 O
b11000 Q
b11000 W
b10100 L
b10100 S
b10100 V
b1000 %
b1000 B
b1000 _
b1000 b
1!
#70
0!
#75
b1 (
b1 ]
b1 e
b1 5
b1 ;
b1 A
b1 [
b111 6
b111 9
b111 >
b11010000010101000 $
b11010000010101000 J
b11010000010101000 N
b11010000010101000 i
b1101 )
b1101 Z
b1101 f
b101010 <
b110100000101010 ,
b110100000101010 F
b110100000101010 ^
b110100000101010 h
b110100000101010 E
b1101 Y
b1001010100110100000101010 +
b1001010100110100000101010 I
b1001010100110100000101010 T
b11100 H
b11100 R
b11010000011000100 K
b11010000011000100 M
b11010000011000100 P
b11100 G
b11100 O
b11100 Q
b11100 W
b11000 L
b11000 S
b11000 V
1!
#80
0!
#85
0#
0-
b10 6
b10 9
b10 >
b1000 5
b1000 ;
b1000 A
b1000 [
b100 $
b100 J
b100 N
b100 i
b11 *
b11 8
b11 `
b1 7
b1 =
b1 @
13
0.
x0
x/
b1 <
b11 %
b11 B
b11 _
b11 b
b1001 d
b101 &
b101 :
b101 a
b1000 c
b1 ,
b1 F
b1 ^
b1 h
b1 E
b0 Y
b1001 X
b100 ?
b10001000010010000000000000001 +
b10001000010010000000000000001 I
b10001000010010000000000000001 T
b100000 H
b100000 R
b100100 K
b100100 M
b100100 P
b100000 G
b100000 O
b100000 Q
b100000 W
b11100 L
b11100 S
b11100 V
1!
#90
0!
#95
1-
b0 (
b0 ]
b0 e
b1111 6
b1111 9
b1111 >
b0 5
b0 ;
b0 A
b0 [
b1000000 $
b1000000 J
b1000000 N
b1000000 i
b0 *
b0 8
b0 `
b0 )
b0 Z
b0 f
b11 7
b11 =
b11 @
03
00
0/
b10000 <
b0 %
b0 B
b0 _
b0 b
b0 d
b0 &
b0 :
b0 a
b0 c
b10000 ,
b10000 F
b10000 ^
b10000 h
b10000 E
b0 X
b10 ?
b1000000000000000000000010000 +
b1000000000000000000000010000 I
b1000000000000000000000010000 T
b100100 H
b100100 R
b1100100 K
b1100100 M
b1100100 P
b100100 G
b100100 O
b100100 Q
b100100 W
b100000 L
b100000 S
b100000 V
1!
#100
0!
#105
0-
b1 (
b1 ]
b1 e
b1 5
b1 ;
b1 A
b1 [
b0 6
b0 9
b0 >
b10100000010010000 $
b10100000010010000 J
b10100000010010000 N
b10100000010010000 i
b101 *
b101 8
b101 `
b1010 )
b1010 Z
b1010 f
b10 7
b10 =
b10 @
1.
1/
b100100 <
b101 %
b101 B
b101 _
b101 b
b1000 d
b11 &
b11 :
b11 a
b1001 c
b101000000100100 ,
b101000000100100 F
b101000000100100 ^
b101000000100100 h
b101000000100100 E
b1010 Y
b1000 X
b0 ?
b1001010000101000000100100 +
b1001010000101000000100100 I
b1001010000101000000100100 T
b101000 H
b101000 R
b10100000010111000 K
b10100000010111000 M
b10100000010111000 P
b101000 G
b101000 O
b101000 Q
b101000 W
b100100 L
b100100 S
b100100 V
1!
#110
0!
#115
1-
b0 (
b0 ]
b0 e
b1111 6
b1111 9
b1111 >
b0 5
b0 ;
b0 A
b0 [
bx00 $
bx00 J
bx00 N
bx00 i
bx *
bx 8
bx `
bx )
bx Z
bx f
b11 7
b11 =
b11 @
0.
0/
bx <
bx %
bx B
bx _
bx b
bx d
bx &
bx :
bx a
bx c
bx ,
bx F
bx ^
bx h
bx E
bx Y
bx X
bx ?
bx +
bx I
bx T
b101100 H
b101100 R
bx K
bx M
bx P
b101100 G
b101100 O
b101100 Q
b101100 W
b101000 L
b101000 S
b101000 V
1!
#120
0!
#125
b110000 H
b110000 R
b110000 G
b110000 O
b110000 Q
b110000 W
b101100 L
b101100 S
b101100 V
1!
#130
0!
#135
b110100 H
b110100 R
b110100 G
b110100 O
b110100 Q
b110100 W
b110000 L
b110000 S
b110000 V
1!
#140
0!
#145
b111000 H
b111000 R
b111000 G
b111000 O
b111000 Q
b111000 W
b110100 L
b110100 S
b110100 V
1!
#150
0!
#155
b111100 H
b111100 R
b111100 G
b111100 O
b111100 Q
b111100 W
b111000 L
b111000 S
b111000 V
1!
#160
0!
#165
b1000000 H
b1000000 R
b1000000 G
b1000000 O
b1000000 Q
b1000000 W
b111100 L
b111100 S
b111100 V
1!
#170
0!
#175
0-
b111 (
b111 ]
b111 e
b111 5
b111 ;
b111 A
b111 [
b10100000011011000 K
b10100000011011000 M
b10100000011011000 P
b1 6
b1 9
b1 >
b10100000010010100 $
b10100000010010100 J
b10100000010010100 N
b10100000010010100 i
b101 *
b101 8
b101 `
b1010 )
b1010 Z
b1010 f
b10 7
b10 =
b10 @
1.
1/
b100101 <
b101 %
b101 B
b101 _
b101 b
b1000 d
b11 &
b11 :
b11 a
b1001 c
b101000000100101 ,
b101000000100101 F
b101000000100101 ^
b101000000100101 h
b101000000100101 E
b1010 Y
b1000 X
b0 ?
b1001010000101000000100101 +
b1001010000101000000100101 I
b1001010000101000000100101 T
b1000100 H
b1000100 R
b1000100 G
b1000100 O
b1000100 Q
b1000100 W
b1000000 L
b1000000 S
b1000000 V
1!
#180
0!
#185
1-
b0 (
b0 ]
b0 e
b1111 6
b1111 9
b1111 >
b0 5
b0 ;
b0 A
b0 [
b0 $
b0 J
b0 N
b0 i
b0 *
b0 8
b0 `
b0 )
b0 Z
b0 f
b0 <
b0 %
b0 B
b0 _
b0 b
b0 d
b0 &
b0 :
b0 a
b0 c
b0 ,
b0 F
b0 ^
b0 h
b0 E
b0 Y
b0 X
b0 +
b0 I
b0 T
b1001000 H
b1001000 R
b1001000 K
b1001000 M
b1001000 P
b1001000 G
b1001000 O
b1001000 Q
b1001000 W
b1000100 L
b1000100 S
b1000100 V
1!
#190
0!
#195
b1001100 H
b1001100 R
b1001100 K
b1001100 M
b1001100 P
b1001100 G
b1001100 O
b1001100 Q
b1001100 W
b1001000 L
b1001000 S
b1001000 V
1!
#200
0!
#205
b1010000 H
b1010000 R
b1010000 K
b1010000 M
b1010000 P
b1010000 G
b1010000 O
b1010000 Q
b1010000 W
b1001100 L
b1001100 S
b1001100 V
1!
#210
0!
#215
b1010100 H
b1010100 R
b1010100 K
b1010100 M
b1010100 P
b1010100 G
b1010100 O
b1010100 Q
b1010100 W
b1010000 L
b1010000 S
b1010000 V
1!
#220
0!
#225
b1011000 H
b1011000 R
b1011000 K
b1011000 M
b1011000 P
b1011000 G
b1011000 O
b1011000 Q
b1011000 W
b1010100 L
b1010100 S
b1010100 V
1!
#230
0!
#235
b1011100 H
b1011100 R
b1011100 K
b1011100 M
b1011100 P
b1011100 G
b1011100 O
b1011100 Q
b1011100 W
b1011000 L
b1011000 S
b1011000 V
1!
#240
0!
#245
b1100000 H
b1100000 R
b1100000 K
b1100000 M
b1100000 P
b1100000 G
b1100000 O
b1100000 Q
b1100000 W
b1011100 L
b1011100 S
b1011100 V
1!
#250
0!
#255
b1100100 H
b1100100 R
b1100100 K
b1100100 M
b1100100 P
b1100100 G
b1100100 O
b1100100 Q
b1100100 W
b1100000 L
b1100000 S
b1100000 V
1!
#260
0!
#265
b1101000 H
b1101000 R
b1101000 K
b1101000 M
b1101000 P
b1101000 G
b1101000 O
b1101000 Q
b1101000 W
b1100100 L
b1100100 S
b1100100 V
1!
#270
0!
#275
b1101100 H
b1101100 R
b1101100 K
b1101100 M
b1101100 P
b1101100 G
b1101100 O
b1101100 Q
b1101100 W
b1101000 L
b1101000 S
b1101000 V
1!
#280
0!
#285
b1110000 H
b1110000 R
b1110000 K
b1110000 M
b1110000 P
b1110000 G
b1110000 O
b1110000 Q
b1110000 W
b1101100 L
b1101100 S
b1101100 V
1!
#290
0!
#295
b1110100 H
b1110100 R
b1110100 K
b1110100 M
b1110100 P
b1110100 G
b1110100 O
b1110100 Q
b1110100 W
b1110000 L
b1110000 S
b1110000 V
1!
#300
0!
#305
b1111000 H
b1111000 R
b1111000 K
b1111000 M
b1111000 P
b1111000 G
b1111000 O
b1111000 Q
b1111000 W
b1110100 L
b1110100 S
b1110100 V
1!
#310
0!
#315
b1111100 H
b1111100 R
b1111100 K
b1111100 M
b1111100 P
b1111100 G
b1111100 O
b1111100 Q
b1111100 W
b1111000 L
b1111000 S
b1111000 V
1!
#320
0!
#325
b10000000 H
b10000000 R
b10000000 K
b10000000 M
b10000000 P
b10000000 G
b10000000 O
b10000000 Q
b10000000 W
b1111100 L
b1111100 S
b1111100 V
1!
#330
0!
#335
b10000100 H
b10000100 R
b10000100 K
b10000100 M
b10000100 P
b10000100 G
b10000100 O
b10000100 Q
b10000100 W
b10000000 L
b10000000 S
b10000000 V
1!
#340
0!
#345
b10001000 H
b10001000 R
b10001000 K
b10001000 M
b10001000 P
b10001000 G
b10001000 O
b10001000 Q
b10001000 W
b10000100 L
b10000100 S
b10000100 V
1!
#350
0!
#355
b10001100 H
b10001100 R
b10001100 K
b10001100 M
b10001100 P
b10001100 G
b10001100 O
b10001100 Q
b10001100 W
b10001000 L
b10001000 S
b10001000 V
1!
#360
0!
#365
b10010000 H
b10010000 R
b10010000 K
b10010000 M
b10010000 P
b10010000 G
b10010000 O
b10010000 Q
b10010000 W
b10001100 L
b10001100 S
b10001100 V
1!
#370
0!
#375
b10010100 H
b10010100 R
b10010100 K
b10010100 M
b10010100 P
b10010100 G
b10010100 O
b10010100 Q
b10010100 W
b10010000 L
b10010000 S
b10010000 V
1!
#380
0!
#385
b10011000 H
b10011000 R
b10011000 K
b10011000 M
b10011000 P
b10011000 G
b10011000 O
b10011000 Q
b10011000 W
b10010100 L
b10010100 S
b10010100 V
1!
#390
0!
#395
b10011100 H
b10011100 R
b10011100 K
b10011100 M
b10011100 P
b10011100 G
b10011100 O
b10011100 Q
b10011100 W
b10011000 L
b10011000 S
b10011000 V
1!
#400
0!
#405
b10100000 H
b10100000 R
b10100000 K
b10100000 M
b10100000 P
b10100000 G
b10100000 O
b10100000 Q
b10100000 W
b10011100 L
b10011100 S
b10011100 V
1!
#410
0!
#415
b10100100 H
b10100100 R
b10100100 K
b10100100 M
b10100100 P
b10100100 G
b10100100 O
b10100100 Q
b10100100 W
b10100000 L
b10100000 S
b10100000 V
1!
